…
Summary of clusters including majority postcode area

``` r
(cluster_summary <-
  nspl %>%
  group_by(cluster) %>%
  filter(cluster > 0) %>%
  summarise(pcd_out = head(names(sort(-table(pcd_out))), 1),
            n = n(),
            oseast1m = mean(oseast1m),
            osnrth1m = mean(osnrth1m)) %>%
  arrange(desc(n)))
```

    ## # A tibble: 6,226 x 5
    ##    cluster pcd_out      n oseast1m osnrth1m
    ##      <int> <chr>    <int>    <dbl>    <dbl>
    ##  1       1 SE      196603  528347.  180652.
    ##  2     179 M        75134  381220.  401261.
    ##  3     206 LS       48973  419883.  429153.
    ##  4      16 B        48933  402538.  289758.
    ##  5    1254 NE       23019  427684.  562952.
    ##  6    2481 L        19544  340916.  392909.
    ##  7    1971 RG       16129  481302.  164518.
    ##  8     324 BS       15333  360555.  174563.
    ##  9    4614 S        14466  438353.  388514.
    ## 10    1235 NG       13368  454664.  340506.
    ## # … with 6,216 more rows
…
